participant_uid,conv_rate0,would_you0,route0,conv_rate1,would_you1,route1,conv_rate2,would_you2,route2,conv_rate3,would_you3,route3,conv_rate4,would_you4,route4,conv_rate5,would_you5,route5,conv_rate6,would_you6,route6,conv_rate7,would_you7,route7,conv_rate8,would_you8,route8,conv_rate9,would_you9,route9
aup_66.31.16.117_2014-08-15 20:45:53.336037,2,Yes,No,2,Yes,No,5(Good),No,Yes,4,No,I dont know,3,Yes,No,1(Bad),No,No,5(Good),No,No,3,No,No,1(Bad),Yes,Yes,2,Yes,No
SS_128.2.211.116_2014-08-14 11:00:57.946203,3,Yes,No,2,Yes,No,4,No,Yes,4,No,No,4,No,I dont know,2,Yes,No,4,Yes,No,4,No,Yes,3,Yes,Yes,4,No,Yes
